Copyright 1986-2018 Xilinx, Inc. All Rights Reserved.
--------------------------------------------------------------------------------------------
| Tool Version : Vivado v.2018.3 (lin64) Build 2405991 Thu Dec  6 23:36:41 MST 2018
| Date         : Sat Jan  7 14:40:34 2023
| Host         : albano-Satellite-C655 running 64-bit Ubuntu 22.04.1 LTS
| Command      : report_control_sets -verbose -file semana3_wrapper_control_sets_placed.rpt
| Design       : semana3_wrapper
| Device       : xc7z020
--------------------------------------------------------------------------------------------

Control Set Information

Table of Contents
-----------------
1. Summary
2. Histogram
3. Flip-Flop Distribution
4. Detailed Control Set Information

1. Summary
----------

+----------------------------------------------------------+-------+
|                          Status                          | Count |
+----------------------------------------------------------+-------+
| Number of unique control sets                            |    38 |
| Unused register locations in slices containing registers |    88 |
+----------------------------------------------------------+-------+


2. Histogram
------------

+--------+--------------+
| Fanout | Control Sets |
+--------+--------------+
|      1 |            1 |
|      2 |            1 |
|      4 |            3 |
|      5 |            3 |
|      6 |            4 |
|      8 |           11 |
|     10 |            1 |
|     13 |            1 |
|     14 |            2 |
|    16+ |           11 |
+--------+--------------+


3. Flip-Flop Distribution
-------------------------

+--------------+-----------------------+------------------------+-----------------+--------------+
| Clock Enable | Synchronous Set/Reset | Asynchronous Set/Reset | Total Registers | Total Slices |
+--------------+-----------------------+------------------------+-----------------+--------------+
| No           | No                    | No                     |             109 |           33 |
| No           | No                    | Yes                    |              25 |            7 |
| No           | Yes                   | No                     |              36 |           16 |
| Yes          | No                    | No                     |             284 |           80 |
| Yes          | No                    | Yes                    |               0 |            0 |
| Yes          | Yes                   | No                     |              42 |           16 |
+--------------+-----------------------+------------------------+-----------------+--------------+


4. Detailed Control Set Information
-----------------------------------

+------------------------------------------------+---------------------------------------------------------------------------------------------------------------------------------------------------------------+------------------------------------------------------------------------------------------------------------------------------------------------------+------------------+----------------+
|                  Clock Signal                  |                                                                         Enable Signal                                                                         |                                                                   Set/Reset Signal                                                                   | Slice Load Count | Bel Load Count |
+------------------------------------------------+---------------------------------------------------------------------------------------------------------------------------------------------------------------+------------------------------------------------------------------------------------------------------------------------------------------------------+------------------+----------------+
|  semana3_i/processing_system7_0/inst/FCLK_CLK0 | semana3_i/ps7_0_axi_periph/s00_couplers/auto_pc/inst/gen_axilite.gen_b2s_conv.axilite_b2s/WR.aw_channel_0/aw_cmd_fsm_0/m_axi_awready_1                        | semana3_i/ps7_0_axi_periph/s00_couplers/auto_pc/inst/gen_axilite.gen_b2s_conv.axilite_b2s/WR.aw_channel_0/aw_cmd_fsm_0/m_axi_awready_0               |                1 |              1 |
|  semana3_i/processing_system7_0/inst/FCLK_CLK0 | semana3_i/ps7_0_axi_periph/s00_couplers/auto_pc/inst/gen_axilite.gen_b2s_conv.axilite_b2s/WR.b_channel_0/bid_fifo_0/sel                                       |                                                                                                                                                      |                1 |              2 |
|  semana3_i/processing_system7_0/inst/FCLK_CLK0 |                                                                                                                                                               | semana3_i/rst_ps7_0_49M/U0/EXT_LPF/lpf_int                                                                                                           |                2 |              4 |
|  semana3_i/processing_system7_0/inst/FCLK_CLK0 |                                                                                                                                                               | semana3_i/ps7_0_axi_periph/s00_couplers/auto_pc/inst/gen_axilite.gen_b2s_conv.axilite_b2s/SI_REG/ar.ar_pipe/aresetn_d_reg[1]_inv_0                   |                2 |              4 |
|  semana3_i/processing_system7_0/inst/FCLK_CLK0 |                                                                                                                                                               | semana3_i/ps7_0_axi_periph/s00_couplers/auto_pc/inst/gen_axilite.gen_b2s_conv.axilite_b2s/SI_REG/aw.aw_pipe/aresetn_d_reg[0]_0                       |                2 |              4 |
|  semana3_i/processing_system7_0/inst/FCLK_CLK0 | semana3_i/ps7_0_axi_periph/s00_couplers/auto_pc/inst/gen_axilite.gen_b2s_conv.axilite_b2s/RD.ar_channel_0/ar_cmd_fsm_0/m_valid_i_reg                          | semana3_i/ps7_0_axi_periph/s00_couplers/auto_pc/inst/gen_axilite.gen_b2s_conv.axilite_b2s/RD.ar_channel_0/ar_cmd_fsm_0/FSM_sequential_state_reg[0]_0 |                2 |              5 |
|  semana3_i/processing_system7_0/inst/FCLK_CLK0 | semana3_i/ps7_0_axi_periph/s00_couplers/auto_pc/inst/gen_axilite.gen_b2s_conv.axilite_b2s/RD.r_channel_0/rd_data_fifo_0/cnt_read[4]_i_1_n_0                   | semana3_i/ps7_0_axi_periph/s00_couplers/auto_pc/inst/gen_axilite.gen_b2s_conv.axilite_b2s/areset_d1                                                  |                2 |              5 |
|  semana3_i/processing_system7_0/inst/FCLK_CLK0 | semana3_i/ps7_0_axi_periph/s00_couplers/auto_pc/inst/gen_axilite.gen_b2s_conv.axilite_b2s/RD.r_channel_0/rd_data_fifo_0/E[0]                                  | semana3_i/ps7_0_axi_periph/s00_couplers/auto_pc/inst/gen_axilite.gen_b2s_conv.axilite_b2s/areset_d1                                                  |                2 |              5 |
|  semana3_i/processing_system7_0/inst/FCLK_CLK0 |                                                                                                                                                               | semana3_i/comblock_0/U0/AXIL_inst/p_0_in                                                                                                             |                3 |              6 |
|  semana3_i/processing_system7_0/inst/FCLK_CLK0 | semana3_i/rst_ps7_0_49M/U0/SEQ/seq_cnt_en                                                                                                                     | semana3_i/rst_ps7_0_49M/U0/SEQ/SEQ_COUNTER/clear                                                                                                     |                2 |              6 |
|  semana3_i/processing_system7_0/inst/FCLK_CLK0 | semana3_i/comblock_0/U0/AXIL_inst/axi_arready0                                                                                                                | semana3_i/comblock_0/U0/AXIL_inst/p_0_in                                                                                                             |                2 |              6 |
|  semana3_i/processing_system7_0/inst/FCLK_CLK0 | semana3_i/comblock_0/U0/AXIL_inst/axi_awready0                                                                                                                | semana3_i/comblock_0/U0/AXIL_inst/p_0_in                                                                                                             |                2 |              6 |
|  semana3_i/processing_system7_0/inst/FCLK_CLK0 | semana3_i/ps7_0_axi_periph/s00_couplers/auto_pc/inst/gen_axilite.gen_b2s_conv.axilite_b2s/WR.aw_channel_0/aw_cmd_fsm_0/E[0]                                   |                                                                                                                                                      |                4 |              8 |
|  semana3_i/processing_system7_0/inst/FCLK_CLK0 | semana3_i/ps7_0_axi_periph/s00_couplers/auto_pc/inst/gen_axilite.gen_b2s_conv.axilite_b2s/WR.b_channel_0/mhandshake_r                                         | semana3_i/ps7_0_axi_periph/s00_couplers/auto_pc/inst/gen_axilite.gen_b2s_conv.axilite_b2s/WR.b_channel_0/bid_fifo_0/SR[0]                            |                3 |              8 |
|  semana3_i/processing_system7_0/inst/FCLK_CLK0 | semana3_i/ps7_0_axi_periph/s00_couplers/auto_pc/inst/gen_axilite.gen_b2s_conv.axilite_b2s/RD.ar_channel_0/ar_cmd_fsm_0/sel_first_reg[0]                       |                                                                                                                                                      |                2 |              8 |
|  semana3_i/processing_system7_0/inst/FCLK_CLK0 | semana3_i/ps7_0_axi_periph/s00_couplers/auto_pc/inst/gen_axilite.gen_b2s_conv.axilite_b2s/WR.aw_channel_0/cmd_translator_0/incr_cmd_0/axaddr_incr[11]_i_1_n_0 |                                                                                                                                                      |                2 |              8 |
|  semana3_i/processing_system7_0/inst/FCLK_CLK0 | semana3_i/ps7_0_axi_periph/s00_couplers/auto_pc/inst/gen_axilite.gen_b2s_conv.axilite_b2s/RD.ar_channel_0/ar_cmd_fsm_0/E[0]                                   |                                                                                                                                                      |                3 |              8 |
|  semana3_i/processing_system7_0/inst/FCLK_CLK0 | semana3_i/ps7_0_axi_periph/s00_couplers/auto_pc/inst/gen_axilite.gen_b2s_conv.axilite_b2s/RD.r_channel_0/rd_data_fifo_0/wr_en0                                |                                                                                                                                                      |                3 |              8 |
|  semana3_i/processing_system7_0/inst/FCLK_CLK0 | semana3_i/comblock_0/U0/AXIL_inst/axi_awaddr_reg[7]_0[0]                                                                                                      |                                                                                                                                                      |                3 |              8 |
|  semana3_i/processing_system7_0/inst/FCLK_CLK0 | semana3_i/comblock_0/U0/AXIL_inst/axi_awaddr_reg[7]_1[0]                                                                                                      |                                                                                                                                                      |                4 |              8 |
|  semana3_i/processing_system7_0/inst/FCLK_CLK0 |                                                                                                                                                               | semana3_i/comblock_0/U0/AXIL_inst/axi_rdata[7]_i_1_n_0                                                                                               |                3 |              8 |
|  semana3_i/processing_system7_0/inst/FCLK_CLK0 | semana3_i/comblock_0/U0/AXIL_inst/axi_awaddr_reg[7]_2[0]                                                                                                      |                                                                                                                                                      |                4 |              8 |
|  semana3_i/processing_system7_0/inst/FCLK_CLK0 | semana3_i/comblock_0/U0/AXIL_inst/E[0]                                                                                                                        |                                                                                                                                                      |                4 |              8 |
|  semana3_i/processing_system7_0/inst/FCLK_CLK0 |                                                                                                                                                               | semana3_i/ps7_0_axi_periph/s00_couplers/auto_pc/inst/gen_axilite.gen_b2s_conv.axilite_b2s/areset_d1                                                  |                4 |             10 |
|  semana3_i/processing_system7_0/inst/FCLK_CLK0 | semana3_i/ps7_0_axi_periph/s00_couplers/auto_pc/inst/gen_axilite.gen_b2s_conv.axilite_b2s/RD.r_channel_0/r_push_r                                             |                                                                                                                                                      |                4 |             13 |
|  semana3_i/processing_system7_0/inst/FCLK_CLK0 | semana3_i/ps7_0_axi_periph/s00_couplers/auto_pc/inst/gen_axilite.gen_b2s_conv.axilite_b2s/SI_REG/b.b_pipe/p_1_in                                              |                                                                                                                                                      |                2 |             14 |
|  semana3_i/processing_system7_0/inst/FCLK_CLK0 | semana3_i/ps7_0_axi_periph/s00_couplers/auto_pc/inst/gen_axilite.gen_b2s_conv.axilite_b2s/SI_REG/b.b_pipe/s_ready_i_reg_0                                     |                                                                                                                                                      |                3 |             14 |
|  semana3_i/processing_system7_0/inst/FCLK_CLK0 | semana3_i/ps7_0_axi_periph/s00_couplers/auto_pc/inst/gen_axilite.gen_b2s_conv.axilite_b2s/WR.aw_channel_0/aw_cmd_fsm_0/b_push                                 |                                                                                                                                                      |                3 |             16 |
|  semana3_i/processing_system7_0/inst/FCLK_CLK0 | semana3_i/ps7_0_axi_periph/s00_couplers/auto_pc/inst/gen_axilite.gen_b2s_conv.axilite_b2s/RD.ar_channel_0/ar_cmd_fsm_0/m_valid_i_reg                          |                                                                                                                                                      |                8 |             17 |
|  semana3_i/processing_system7_0/inst/FCLK_CLK0 | semana3_i/ps7_0_axi_periph/s00_couplers/auto_pc/inst/gen_axilite.gen_b2s_conv.axilite_b2s/SI_REG/r.r_pipe/p_1_in                                              |                                                                                                                                                      |                5 |             21 |
|  semana3_i/processing_system7_0/inst/FCLK_CLK0 | semana3_i/ps7_0_axi_periph/s00_couplers/auto_pc/inst/gen_axilite.gen_b2s_conv.axilite_b2s/SI_REG/r.r_pipe/s_ready_i_reg_0                                     |                                                                                                                                                      |                5 |             21 |
|  semana3_i/processing_system7_0/inst/FCLK_CLK0 | semana3_i/ps7_0_axi_periph/s00_couplers/auto_pc/inst/gen_axilite.gen_b2s_conv.axilite_b2s/WR.aw_channel_0/aw_cmd_fsm_0/m_axi_awready_1                        |                                                                                                                                                      |                9 |             21 |
|  semana3_i/processing_system7_0/inst/FCLK_CLK0 |                                                                                                                                                               | semana3_i/PWM_V1_0/U0/resetaux                                                                                                                       |                7 |             25 |
|  semana3_i/processing_system7_0/inst/FCLK_CLK0 | semana3_i/ps7_0_axi_periph/s00_couplers/auto_pc/inst/gen_axilite.gen_b2s_conv.axilite_b2s/WR.aw_channel_0/aw_cmd_fsm_0/m_valid_i_reg[0]                       |                                                                                                                                                      |                5 |             28 |
|  semana3_i/processing_system7_0/inst/FCLK_CLK0 | semana3_i/ps7_0_axi_periph/s00_couplers/auto_pc/inst/gen_axilite.gen_b2s_conv.axilite_b2s/RD.ar_channel_0/ar_cmd_fsm_0/FSM_sequential_state_reg[1]_0[0]       |                                                                                                                                                      |                6 |             28 |
|  semana3_i/processing_system7_0/inst/FCLK_CLK0 | semana3_i/ps7_0_axi_periph/s00_couplers/auto_pc/inst/gen_axilite.gen_b2s_conv.axilite_b2s/SI_REG/ar.ar_pipe/s_ready_i_reg_0                                   |                                                                                                                                                      |                6 |             28 |
|  semana3_i/processing_system7_0/inst/FCLK_CLK0 | semana3_i/ps7_0_axi_periph/s00_couplers/auto_pc/inst/gen_axilite.gen_b2s_conv.axilite_b2s/SI_REG/aw.aw_pipe/s_ready_i_reg_0                                   |                                                                                                                                                      |                5 |             28 |
|  semana3_i/processing_system7_0/inst/FCLK_CLK0 |                                                                                                                                                               |                                                                                                                                                      |               34 |            110 |
+------------------------------------------------+---------------------------------------------------------------------------------------------------------------------------------------------------------------+------------------------------------------------------------------------------------------------------------------------------------------------------+------------------+----------------+


