Copyright 1986-2018 Xilinx, Inc. All Rights Reserved.
--------------------------------------------------------------------------------------------
| Tool Version : Vivado v.2018.3 (lin64) Build 2405991 Thu Dec  6 23:36:41 MST 2018
| Date         : Sat Jan  7 15:47:20 2023
| Host         : albano-Satellite-C655 running 64-bit Ubuntu 22.04.1 LTS
| Command      : report_control_sets -verbose -file semana5_wrapper_control_sets_placed.rpt
| Design       : semana5_wrapper
| Device       : xc7z020
--------------------------------------------------------------------------------------------

Control Set Information

Table of Contents
-----------------
1. Summary
2. Histogram
3. Flip-Flop Distribution
4. Detailed Control Set Information

1. Summary
----------

+----------------------------------------------------------+-------+
|                          Status                          | Count |
+----------------------------------------------------------+-------+
| Number of unique control sets                            |    29 |
| Unused register locations in slices containing registers |    80 |
+----------------------------------------------------------+-------+


2. Histogram
------------

+--------+--------------+
| Fanout | Control Sets |
+--------+--------------+
|      1 |            2 |
|      2 |            1 |
|      4 |            3 |
|      5 |            3 |
|      6 |            3 |
|      8 |            3 |
|     10 |            1 |
|     13 |            2 |
|     14 |            4 |
|    16+ |            7 |
+--------+--------------+


3. Flip-Flop Distribution
-------------------------

+--------------+-----------------------+------------------------+-----------------+--------------+
| Clock Enable | Synchronous Set/Reset | Asynchronous Set/Reset | Total Registers | Total Slices |
+--------------+-----------------------+------------------------+-----------------+--------------+
| No           | No                    | No                     |              96 |           29 |
| No           | No                    | Yes                    |               0 |            0 |
| No           | Yes                   | No                     |              28 |           11 |
| Yes          | No                    | No                     |             192 |           50 |
| Yes          | No                    | Yes                    |               0 |            0 |
| Yes          | Yes                   | No                     |              36 |           13 |
+--------------+-----------------------+------------------------+-----------------+--------------+


4. Detailed Control Set Information
-----------------------------------

+------------------------------------------------+---------------------------------------------------------------------------------------------------------------------------------------------------------+------------------------------------------------------------------------------------------------------------------------------------------------------+------------------+----------------+
|                  Clock Signal                  |                                                                      Enable Signal                                                                      |                                                                   Set/Reset Signal                                                                   | Slice Load Count | Bel Load Count |
+------------------------------------------------+---------------------------------------------------------------------------------------------------------------------------------------------------------+------------------------------------------------------------------------------------------------------------------------------------------------------+------------------+----------------+
|  semana5_i/processing_system7_0/inst/FCLK_CLK0 | semana5_i/ps7_0_axi_periph/s00_couplers/auto_pc/inst/gen_axilite.gen_b2s_conv.axilite_b2s/WR.aw_channel_0/aw_cmd_fsm_0/m_axi_awready_1                  | semana5_i/ps7_0_axi_periph/s00_couplers/auto_pc/inst/gen_axilite.gen_b2s_conv.axilite_b2s/WR.aw_channel_0/aw_cmd_fsm_0/m_axi_awready_0               |                1 |              1 |
|  semana5_i/processing_system7_0/inst/FCLK_CLK0 | semana5_i/ps7_0_axi_periph/s00_couplers/auto_pc/inst/gen_axilite.gen_b2s_conv.axilite_b2s/RD.r_channel_0/rd_data_fifo_0/wr_en0                          |                                                                                                                                                      |                1 |              1 |
|  semana5_i/processing_system7_0/inst/FCLK_CLK0 | semana5_i/ps7_0_axi_periph/s00_couplers/auto_pc/inst/gen_axilite.gen_b2s_conv.axilite_b2s/WR.b_channel_0/bid_fifo_0/sel                                 |                                                                                                                                                      |                1 |              2 |
|  semana5_i/processing_system7_0/inst/FCLK_CLK0 |                                                                                                                                                         | semana5_i/ps7_0_axi_periph/s00_couplers/auto_pc/inst/gen_axilite.gen_b2s_conv.axilite_b2s/SI_REG/ar.ar_pipe/aresetn_d_reg[1]_inv_0                   |                2 |              4 |
|  semana5_i/processing_system7_0/inst/FCLK_CLK0 |                                                                                                                                                         | semana5_i/ps7_0_axi_periph/s00_couplers/auto_pc/inst/gen_axilite.gen_b2s_conv.axilite_b2s/SI_REG/aw.aw_pipe/aresetn_d_reg[0]_0                       |                2 |              4 |
|  semana5_i/processing_system7_0/inst/FCLK_CLK0 |                                                                                                                                                         | semana5_i/rst_ps7_0_50M/U0/EXT_LPF/lpf_int                                                                                                           |                1 |              4 |
|  semana5_i/processing_system7_0/inst/FCLK_CLK0 | semana5_i/ps7_0_axi_periph/s00_couplers/auto_pc/inst/gen_axilite.gen_b2s_conv.axilite_b2s/RD.r_channel_0/rd_data_fifo_0/cnt_read[4]_i_1_n_0             | semana5_i/ps7_0_axi_periph/s00_couplers/auto_pc/inst/gen_axilite.gen_b2s_conv.axilite_b2s/areset_d1                                                  |                2 |              5 |
|  semana5_i/processing_system7_0/inst/FCLK_CLK0 | semana5_i/ps7_0_axi_periph/s00_couplers/auto_pc/inst/gen_axilite.gen_b2s_conv.axilite_b2s/RD.ar_channel_0/ar_cmd_fsm_0/m_valid_i_reg                    | semana5_i/ps7_0_axi_periph/s00_couplers/auto_pc/inst/gen_axilite.gen_b2s_conv.axilite_b2s/RD.ar_channel_0/ar_cmd_fsm_0/FSM_sequential_state_reg[0]_0 |                2 |              5 |
|  semana5_i/processing_system7_0/inst/FCLK_CLK0 | semana5_i/ps7_0_axi_periph/s00_couplers/auto_pc/inst/gen_axilite.gen_b2s_conv.axilite_b2s/RD.r_channel_0/rd_data_fifo_0/E[0]                            | semana5_i/ps7_0_axi_periph/s00_couplers/auto_pc/inst/gen_axilite.gen_b2s_conv.axilite_b2s/areset_d1                                                  |                1 |              5 |
|  semana5_i/processing_system7_0/inst/FCLK_CLK0 | semana5_i/rst_ps7_0_50M/U0/SEQ/seq_cnt_en                                                                                                               | semana5_i/rst_ps7_0_50M/U0/SEQ/SEQ_COUNTER/clear                                                                                                     |                1 |              6 |
|  semana5_i/processing_system7_0/inst/FCLK_CLK0 |                                                                                                                                                         | semana5_i/comblock_0/U0/AXIL_inst/p_0_in                                                                                                             |                2 |              6 |
|  semana5_i/processing_system7_0/inst/FCLK_CLK0 | semana5_i/comblock_0/U0/AXIL_inst/axi_arready0                                                                                                          | semana5_i/comblock_0/U0/AXIL_inst/p_0_in                                                                                                             |                2 |              6 |
|  semana5_i/processing_system7_0/inst/FCLK_CLK0 | semana5_i/ps7_0_axi_periph/s00_couplers/auto_pc/inst/gen_axilite.gen_b2s_conv.axilite_b2s/WR.b_channel_0/mhandshake_r                                   | semana5_i/ps7_0_axi_periph/s00_couplers/auto_pc/inst/gen_axilite.gen_b2s_conv.axilite_b2s/WR.b_channel_0/bid_fifo_0/SR[0]                            |                4 |              8 |
|  semana5_i/processing_system7_0/inst/FCLK_CLK0 | semana5_i/ps7_0_axi_periph/s00_couplers/auto_pc/inst/gen_axilite.gen_b2s_conv.axilite_b2s/RD.ar_channel_0/ar_cmd_fsm_0/sel_first_reg[0]                 |                                                                                                                                                      |                2 |              8 |
|  semana5_i/processing_system7_0/inst/FCLK_CLK0 | semana5_i/ps7_0_axi_periph/s00_couplers/auto_pc/inst/gen_axilite.gen_b2s_conv.axilite_b2s/RD.ar_channel_0/ar_cmd_fsm_0/E[0]                             |                                                                                                                                                      |                4 |              8 |
|  semana5_i/processing_system7_0/inst/FCLK_CLK0 |                                                                                                                                                         | semana5_i/ps7_0_axi_periph/s00_couplers/auto_pc/inst/gen_axilite.gen_b2s_conv.axilite_b2s/areset_d1                                                  |                4 |             10 |
|  semana5_i/processing_system7_0/inst/FCLK_CLK0 | semana5_i/ps7_0_axi_periph/s00_couplers/auto_pc/inst/gen_axilite.gen_b2s_conv.axilite_b2s/RD.r_channel_0/r_push_r                                       |                                                                                                                                                      |                4 |             13 |
|  semana5_i/processing_system7_0/inst/FCLK_CLK0 | semana5_i/ps7_0_axi_periph/s00_couplers/auto_pc/inst/gen_axilite.gen_b2s_conv.axilite_b2s/WR.aw_channel_0/aw_cmd_fsm_0/m_axi_awready_1                  |                                                                                                                                                      |                6 |             13 |
|  semana5_i/processing_system7_0/inst/FCLK_CLK0 | semana5_i/ps7_0_axi_periph/s00_couplers/auto_pc/inst/gen_axilite.gen_b2s_conv.axilite_b2s/SI_REG/b.b_pipe/s_ready_i_reg_0                               |                                                                                                                                                      |                3 |             14 |
|  semana5_i/processing_system7_0/inst/FCLK_CLK0 | semana5_i/ps7_0_axi_periph/s00_couplers/auto_pc/inst/gen_axilite.gen_b2s_conv.axilite_b2s/SI_REG/r.r_pipe/s_ready_i_reg_0                               |                                                                                                                                                      |                3 |             14 |
|  semana5_i/processing_system7_0/inst/FCLK_CLK0 | semana5_i/ps7_0_axi_periph/s00_couplers/auto_pc/inst/gen_axilite.gen_b2s_conv.axilite_b2s/SI_REG/r.r_pipe/p_1_in                                        |                                                                                                                                                      |                2 |             14 |
|  semana5_i/processing_system7_0/inst/FCLK_CLK0 | semana5_i/ps7_0_axi_periph/s00_couplers/auto_pc/inst/gen_axilite.gen_b2s_conv.axilite_b2s/SI_REG/b.b_pipe/p_1_in                                        |                                                                                                                                                      |                2 |             14 |
|  semana5_i/processing_system7_0/inst/FCLK_CLK0 | semana5_i/ps7_0_axi_periph/s00_couplers/auto_pc/inst/gen_axilite.gen_b2s_conv.axilite_b2s/WR.aw_channel_0/aw_cmd_fsm_0/b_push                           |                                                                                                                                                      |                3 |             16 |
|  semana5_i/processing_system7_0/inst/FCLK_CLK0 | semana5_i/ps7_0_axi_periph/s00_couplers/auto_pc/inst/gen_axilite.gen_b2s_conv.axilite_b2s/RD.ar_channel_0/ar_cmd_fsm_0/m_valid_i_reg                    |                                                                                                                                                      |                8 |             17 |
|  semana5_i/processing_system7_0/inst/FCLK_CLK0 | semana5_i/ps7_0_axi_periph/s00_couplers/auto_pc/inst/gen_axilite.gen_b2s_conv.axilite_b2s/WR.aw_channel_0/aw_cmd_fsm_0/m_valid_i_reg[0]                 |                                                                                                                                                      |                3 |             17 |
|  semana5_i/processing_system7_0/inst/FCLK_CLK0 | semana5_i/ps7_0_axi_periph/s00_couplers/auto_pc/inst/gen_axilite.gen_b2s_conv.axilite_b2s/SI_REG/aw.aw_pipe/s_ready_i_reg_0                             |                                                                                                                                                      |                4 |             17 |
|  semana5_i/processing_system7_0/inst/FCLK_CLK0 | semana5_i/ps7_0_axi_periph/s00_couplers/auto_pc/inst/gen_axilite.gen_b2s_conv.axilite_b2s/RD.ar_channel_0/ar_cmd_fsm_0/FSM_sequential_state_reg[1]_0[0] |                                                                                                                                                      |                6 |             28 |
|  semana5_i/processing_system7_0/inst/FCLK_CLK0 | semana5_i/ps7_0_axi_periph/s00_couplers/auto_pc/inst/gen_axilite.gen_b2s_conv.axilite_b2s/SI_REG/ar.ar_pipe/s_ready_i_reg_0                             |                                                                                                                                                      |                7 |             28 |
|  semana5_i/processing_system7_0/inst/FCLK_CLK0 |                                                                                                                                                         |                                                                                                                                                      |               30 |             97 |
+------------------------------------------------+---------------------------------------------------------------------------------------------------------------------------------------------------------+------------------------------------------------------------------------------------------------------------------------------------------------------+------------------+----------------+


