,0,1,2,3,4,5,6,7,8,9,10,11,12,13,14,15,16,17,18,19,20,21,22,23,24,25,26,27,28,29,30,31,32,33,34,35,36,37,38,39,40,41,42,43,44,45,46,47,48,49,50,51,52,53,54,55,56,57,58,59,60,61,62,63,64,65,66,67,68,69,70,71,72,73,74,75,76,77,78,79,80,81,82,83,84,85,86,87,88,89,90,91,92,93,94,95,96,97,98,99,100
0,0.46305373311042786,0.46300292015075684,0.46325284242630005,0.46332526206970215,0.46339526772499084,0.463547945022583,0.4637574851512909,0.46342334151268005,0.4631090462207794,0.4630841016769409,0.46306654810905457,0.4631853699684143,0.463198184967041,0.4634493589401245,0.46320468187332153,0.46287626028060913,0.463091105222702,0.4631660580635071,0.46332618594169617,0.46313923597335815,0.4632408916950226,0.4632590711116791,0.46330031752586365,0.46335580945014954,0.4632396101951599,0.46323922276496887,0.4632455110549927,0.4634688198566437,0.46363142132759094,0.4638928771018982,0.46346089243888855,0.4628596901893616,0.4628909230232239,0.46263840794563293,0.46254077553749084,0.4624006152153015,0.46238017082214355,0.46216222643852234,0.46207842230796814,0.46226879954338074,0.46232250332832336,0.46243274211883545,0.46228963136672974,0.4616294801235199,0.46132054924964905,0.4611702859401703,0.46102526783943176,0.46084025502204895,0.4606846272945404,0.46060970425605774,0.46058189868927,0.46042361855506897,0.46034517884254456,0.46044233441352844,0.46057257056236267,0.4606684446334839,0.46101975440979004,0.46121400594711304,0.46142005920410156,0.46164369583129883,0.4619365334510803,0.46217164397239685,0.4623964726924896,0.4624510407447815,0.4627652168273926,0.4632361829280853,0.46372342109680176,0.4641243517398834,0.4645344018936157,0.4652455151081085,0.4657985270023346,0.46653297543525696,0.4669523239135742,0.4674121141433716,0.46739012002944946,0.4668879508972168,0.46700435876846313,0.46738243103027344,0.467606782913208,0.4679558277130127,0.46800997853279114,0.4679775536060333,0.4680757224559784,0.4685727059841156,0.4688224494457245,0.46914780139923096,0.4693771302700043,0.4699309766292572,0.4703058898448944,0.4707237780094147,0.4712867736816406,0.4718349575996399,0.47264331579208374,0.4733338952064514,0.4741837680339813,0.47478505969047546,0.4744682312011719,0.4737575054168701,0.47322019934654236,0.4730831980705261,0.47313007712364197
1,0.6793544888496399,0.6801497340202332,0.6814274787902832,0.6829203367233276,0.6845476627349854,0.6867831349372864,0.6879560947418213,0.6776835918426514,0.6763955354690552,0.6779539585113525,0.6790288686752319,0.6801630854606628,0.6809198260307312,0.6826605796813965,0.6762855052947998,0.6718074679374695,0.6742886900901794,0.6756489276885986,0.6768428683280945,0.6770504117012024,0.6780782341957092,0.6793212890625,0.6790450811386108,0.6789891719818115,0.6790539622306824,0.6789465546607971,0.6801803708076477,0.6808525323867798,0.681570291519165,0.6843687295913696,0.6747018694877625,0.6684437990188599,0.6699692010879517,0.6706945896148682,0.6710084080696106,0.6714107394218445,0.6724332571029663,0.6726874709129333,0.6739322543144226,0.677065908908844,0.678996205329895,0.6807723641395569,0.6743895411491394,0.6694173812866211,0.6686779856681824,0.6701036691665649,0.670699417591095,0.6708823442459106,0.6709255576133728,0.6716203093528748,0.6739926338195801,0.6738100647926331,0.6749036312103271,0.6763128638267517,0.6776419281959534,0.6801466345787048,0.6826245784759521,0.6855865716934204,0.68674635887146,0.6891663074493408,0.6902614831924438,0.6913648843765259,0.6915993094444275,0.693004846572876,0.6939975619316101,0.6966246366500854,0.7001450657844543,0.7022597789764404,0.7041752338409424,0.705985426902771,0.7093726396560669,0.7124423980712891,0.7139666676521301,0.7164065837860107,0.7062614560127258,0.6947195529937744,0.6941602826118469,0.6957058310508728,0.6978856921195984,0.6998782157897949,0.7013100385665894,0.7016575336456299,0.7032172083854675,0.7046444416046143,0.7061607837677002,0.7086600661277771,0.7090507745742798,0.710867166519165,0.7136045694351196,0.7157793641090393,0.7190641164779663,0.7216012477874756,0.7255087494850159,0.7275673747062683,0.7302101850509644,0.729333221912384,0.7182744741439819,0.7047085165977478,0.6939435601234436,0.6936325430870056,0.6936368942260742
2,0.5554622411727905,0.5547140836715698,0.5534719824790955,0.5524570941925049,0.5512668490409851,0.5493177771568298,0.5487160682678223,0.5574693083763123,0.5578240156173706,0.556755781173706,0.5557765960693359,0.554754912853241,0.5541112422943115,0.5527310967445374,0.5587332248687744,0.5620275139808655,0.5597376823425293,0.5586062073707581,0.5575848817825317,0.5574283599853516,0.556580126285553,0.5557378530502319,0.5556720495223999,0.5558624267578125,0.5559700131416321,0.5559331774711609,0.5547042489051819,0.5540610551834106,0.5535681247711182,0.5518006682395935,0.56004798412323,0.5647590756416321,0.5638134479522705,0.5629766583442688,0.5628359317779541,0.5624853372573853,0.5614756941795349,0.5614647269248962,0.5602156519889832,0.5576016306877136,0.5560427308082581,0.5547372698783875,0.5602951049804688,0.5646750330924988,0.5649004578590393,0.5642332434654236,0.563336968421936,0.563197672367096,0.5630626678466797,0.5623902082443237,0.5604768395423889,0.5607101917266846,0.5597879886627197,0.5587149262428284,0.5575921535491943,0.5554370284080505,0.5532520413398743,0.5507686734199524,0.5495970249176025,0.5479338765144348,0.5470771193504333,0.5461786389350891,0.5457969307899475,0.5450648665428162,0.5440542697906494,0.5418675541877747,0.5391882658004761,0.5376903414726257,0.5361576080322266,0.5346086621284485,0.5321396589279175,0.5297139883041382,0.5285504460334778,0.526763916015625,0.534163236618042,0.5429307818412781,0.5425636768341064,0.5415087938308716,0.539588212966919,0.5379492044448853,0.5370372533798218,0.5367143750190735,0.5355663895606995,0.5343704223632812,0.5331956148147583,0.5313886404037476,0.5310860276222229,0.5296167135238647,0.5275808572769165,0.5259490013122559,0.5234934687614441,0.5216613411903381,0.5189149975776672,0.5171536803245544,0.515313446521759,0.5160205364227295,0.5233653783798218,0.5333065986633301,0.5414772033691406,0.5413497686386108,0.5412771105766296
3,0.3784875273704529,0.3784855902194977,0.3782230019569397,0.3781767785549164,0.37810611724853516,0.37795329093933105,0.37774857878685,0.3782239854335785,0.3783890902996063,0.3784584105014801,0.37842419743537903,0.3783395290374756,0.37825316190719604,0.37806814908981323,0.37842538952827454,0.3786146640777588,0.37840771675109863,0.37832605838775635,0.37819498777389526,0.3783503770828247,0.37821096181869507,0.3782758414745331,0.3781868517398834,0.3781425654888153,0.3782757520675659,0.3782671391963959,0.3782799243927002,0.37802234292030334,0.37782523036003113,0.3775852918624878,0.37820371985435486,0.37872713804244995,0.3787175714969635,0.3789994418621063,0.3789914846420288,0.37915298342704773,0.3791760504245758,0.3793935179710388,0.3794224262237549,0.3792390823364258,0.37911301851272583,0.37910977005958557,0.37935227155685425,0.3800358176231384,0.3802436292171478,0.38038209080696106,0.38053810596466064,0.38066592812538147,0.3808729946613312,0.38090822100639343,0.3809519112110138,0.3811268210411072,0.3811079263687134,0.3810007572174072,0.3809078335762024,0.3808038830757141,0.38047996163368225,0.3803502917289734,0.38020092248916626,0.3798944056034088,0.3796459436416626,0.3794887959957123,0.37920325994491577,0.37919119000434875,0.3788548409938812,0.3784084618091583,0.378042072057724,0.3777264952659607,0.3772980272769928,0.37667322158813477,0.3761250376701355,0.37550199031829834,0.37512901425361633,0.37472471594810486,0.37450090050697327,0.37469226121902466,0.3745090663433075,0.374170184135437,0.37392643094062805,0.3736986219882965,0.373670756816864,0.3737573027610779,0.37358933687210083,0.3731015622615814,0.3729349672794342,0.3726629912853241,0.3723921477794647,0.3718535602092743,0.371572881937027,0.3712613582611084,0.37073996663093567,0.3702238202095032,0.3695182204246521,0.3689039647579193,0.3680743873119354,0.36756739020347595,0.36749956011772156,0.367941677570343,0.3683927655220032,0.368351012468338,0.3683779835700989
4,15763088.0,0.9,0.9,0.9,0.9,0.9,0.9,0.9,0.9,0.9,0.9,0.9,0.9,0.9,0.9,0.9,0.9,0.9,0.9,0.9,0.9,0.9,0.9,0.9,0.9,0.9,0.9,0.9,0.9,0.9,0.9,0.9,0.9,0.9,0.9,0.9,0.9,0.9,0.9,0.9,0.9,0.9,0.9,0.9,0.9,0.9,0.9,0.9,0.9,0.9,0.9,0.9,0.9,0.9,0.9,0.9,0.9,0.9,0.9,0.9,0.9,0.9,0.9,0.9,0.9,0.9,0.9,0.9,0.9,0.9,0.9,0.9,0.9,0.9,0.9,0.9,0.9,0.9,0.9,0.9,0.9,0.9,0.9,0.9,0.9,0.9,0.9,0.9,0.9,0.9,0.9,0.9,0.9,0.9,0.9,0.9,0.9,0.9,0.9,0.9,0.9
5,0.9,0.9,0.9,0.9,0.9,0.9,0.9,0.9,0.9,0.9,0.9,0.9,0.9,0.9,0.9,0.9,0.9,0.9,0.9,0.9,0.9,0.9,0.9,0.9,0.9,0.9,0.9,0.9,0.9,0.9,0.9,0.9,0.9,0.9,0.9,0.9,0.9,0.9,0.9,0.9,0.9,0.9,0.9,0.9,0.9,0.9,0.9,0.9,0.9,0.9,0.9,0.9,0.9,0.9,0.9,0.9,0.9,0.9,0.9,0.9,0.9,0.9,0.9,0.9,0.9,0.9,0.9,0.9,0.9,0.9,0.9,0.9,0.9,0.9,0.9,0.9,0.9,0.9,0.9,0.9,0.9,0.9,0.9,0.9,0.9,0.9,0.9,0.9,0.9,0.9,0.9,0.9,0.9,0.9,0.9,0.9,0.9,0.9,0.9,0.9,0.9
6,0.0013926837283406712,0.0016337157404677782,0.001665302491460352,0.0017348668279737467,0.0017348668279737467,0.007117539837508957,0.007117539837508957,0.007356982507644716,0.007439519151830609,0.007747303243377246,0.007817095095674631,0.007817095095674631,0.00753342220605191,0.007241033657123808,0.007241033657123808,0.007177159204729833,0.00755631113236177,0.007246327413668041,0.00755631113236177,0.007914956086096936,0.007914956086096936,0.007914956086096936,0.00771607410854358,0.007468992819781306,0.007468992819781306,0.007468992819781306,0.00766181649680675,0.007466051101800986,0.007020625218956411,0.007020625218956411,0.007210467458662606,0.007613982688781107,0.007613982688781107,0.007613982688781107,0.007767687293380732,0.007782385367249844,0.007767687293380732,0.007615644292968682,0.007615644292968682,0.0072203238943302495,0.007553110492608539,0.007479083308226109,0.007553110492608539,0.007657496396973329,0.007657496396973329,0.0074337563660265005,0.0074337563660265005,0.007243492348152358,0.007034058455701597,0.007034058455701597,0.007829004289305885,0.007829004289305885,0.007829004289305885,0.007767609133679798,0.007679345301880858,0.007509570494335094,0.007509570494335094,0.0076030573836760595,0.0076262824677542085,0.0076030573836760595,0.007272133473179565,0.007272133473179565,0.0073751625251361475,0.007384334139715065,0.007797992296332268,0.007797992296332268,0.007496371452475614,0.007496371452475614,0.00751428729017789,0.00751428729017789,0.0076067886567443566,0.007471039182860295,0.0076067886567443566,0.007645958248758689,0.007645958248758689,0.007550645548803914,0.00744494577986643,0.007550645548803914,0.007838377271696118,0.007838377271696118,0.008392766233100701,0.007827773345070455,0.007667697445867816,0.007667697445867816,0.007667697445867816,0.007469025788964245,0.007469025788964245,0.0076556535333338616,0.007667733825655887,0.007855533112888224,0.007667733825655887,0.00791074974415551,0.007861820066068503,0.007861820066068503,0.007526651870648493,0.007343043151308848,0.007297900594949169,0.007343043151308848,0.007643147057478927,0.00786360487836646,0.00786360487836646
7,0.0017477077562944032,0.0019701681708284013,0.0019701681708284013,0.0018280412206195251,0.0018280412206195251,0.0047501476529987485,0.0070899387338840825,0.007628928599956453,0.0078058747021714225,0.007912663093634364,0.007912663093634364,0.008227516445913352,0.007615376773628668,0.0075833475676745365,0.0073747358442233235,0.0073747358442233235,0.0074531408955635925,0.00769225330543577,0.007713727612213006,0.008349379925221001,0.008028621323319385,0.008028621323319385,0.008028621323319385,0.007845789014027105,0.00798406858848466,0.007845789014027105,0.0076347910749063885,0.0076347910749063885,0.0076347910749063885,0.005487959882088944,0.005487959882088944,0.008295595819163282,0.008295595819163282,0.007620402868724341,0.007620402868724341,0.00814283566796803,0.00814283566796803,0.008080361411089143,0.00784826745814371,0.008080361411089143,0.007652586475614953,0.008092736223375141,0.00791269776811987,0.008092736223375141,0.00791269776811987,0.007786250080243917,0.007786250080243917,0.007916943616237404,0.007916943616237404,0.007916943616237404,0.00766303429600157,0.00788188344813534,0.007876697338815575,0.007876697338815575,0.007846664686894655,0.007846664686894655,0.008040281045396114,0.008040281045396114,0.008181727935152594,0.007904743668518677,0.007768754883841211,0.007768754883841211,0.007768754883841211,0.007728640483151139,0.007728640483151139,0.007799912111750018,0.007799912111750018,0.007905360916993232,0.008415797836391903,0.008415797836391903,0.008159360689319328,0.008061898100208964,0.008061898100208964,0.004813888665466948,0.004813888665466948,0.006965324317320665,0.007118128522165534,0.007665632963949065,0.007350580588649791,0.007665632963949065,0.007690800885029603,0.007690800885029603,0.007690800885029603,0.007715283416587226,0.007715283416587226,0.007284489811354433,0.007269939672482906,0.007269939672482906,0.007622077191626886,0.007786261519981963,0.008067928547461634,0.008067928547461634,0.007981572025528294,0.007734050271324122,0.007615865342813777,0.005058543095515233,0.00470869629509707,0.00470869629509707,0.007170500850861572,0.0073622874907641744,0.007170500850861572
